Starting at 2016-06-24_15-46-57

Attempting pssn_stl/ComeLemoFresBlea.stl
	pssn_stl/ComeLemoFresBlea.stl - *SUCCESS* -->output/ComeLemoFresBlea.pkl
Attempting pssn_stl/StaiSteeSpooRedHand.stl
	pssn_stl/StaiSteeSpooRedHand.stl - *SUCCESS* -->output/StaiSteeSpooRedHand.pkl
Attempting pssn_stl/BlacAndDeckLithDrilDriv.stl
	pssn_stl/BlacAndDeckLithDrilDriv.stl - *SUCCESS* -->output/BlacAndDeckLithDrilDriv.pkl
Attempting pssn_stl/StanPhilScre.stl
	pssn_stl/StanPhilScre.stl - *SUCCESS* -->output/StanPhilScre.pkl
Attempting pssn_stl/PlayGoRainStakCups6Purp.stl
	pssn_stl/PlayGoRainStakCups6Purp.stl - *SUCCESS* -->output/PlayGoRainStakCups6Purp.pkl
Attempting pssn_stl/RedMetaCupWhitSpec.stl
	pssn_stl/RedMetaCupWhitSpec.stl - *SUCCESS* -->output/RedMetaCupWhitSpec.pkl
Attempting pssn_stl/MediBlacSpriClam.stl
	pssn_stl/MediBlacSpriClam.stl - *SUCCESS* -->output/MediBlacSpriClam.pkl
Attempting pssn_stl/WhitRope.stl
	pssn_stl/WhitRope.stl - *SUCCESS* -->output/WhitRope.pkl
Attempting pssn_stl/MeliDougPlayProdFarmFresFruiUnopBox.stl
	pssn_stl/MeliDougPlayProdFarmFresFruiUnopBox.stl - *SUCCESS* -->output/MeliDougPlayProdFarmFresFruiUnopBox.pkl
Attempting pssn_stl/MeliDougFarmFresFruiLemo.stl
	pssn_stl/MeliDougFarmFresFruiLemo.stl - *SUCCESS* -->output/MeliDougFarmFresFruiLemo.pkl
Attempting pssn_stl/MeliDougFarmFresFruiOran.stl
	pssn_stl/MeliDougFarmFresFruiOran.stl - *SUCCESS* -->output/MeliDougFarmFresFruiOran.pkl
Attempting pssn_stl/MastChefGrouCoff297g.stl
	pssn_stl/MastChefGrouCoff297g.stl - *SUCCESS* -->output/MastChefGrouCoff297g.pkl
Attempting pssn_stl/SterBin12qtCap.stl
	pssn_stl/SterBin12qtCap.stl - *SUCCESS* -->output/SterBin12qtCap.pkl
Attempting pssn_stl/MeliDougFarmFresFruiBana.stl
	pssn_stl/MeliDougFarmFresFruiBana.stl - *SUCCESS* -->output/MeliDougFarmFresFruiBana.pkl
Attempting pssn_stl/LearResoOne-ColoCubeBox.stl
	pssn_stl/LearResoOne-ColoCubeBox.stl - *SUCCESS* -->output/LearResoOne-ColoCubeBox.pkl
Attempting pssn_stl/YellWoodBloc1inx.stl
	pssn_stl/YellWoodBloc1inx.stl - *SUCCESS* -->output/YellWoodBloc1inx.pkl
Attempting pssn_stl/WescOranGreyScis.stl
	pssn_stl/WescOranGreyScis.stl - *SUCCESS* -->output/WescOranGreyScis.pkl
Attempting pssn_stl/BlocOfWood6in.stl
	pssn_stl/BlocOfWood6in.stl - *SUCCESS* -->output/BlocOfWood6in.pkl
Attempting pssn_stl/WearCookPanWithLid.stl
	pssn_stl/WearCookPanWithLid.stl - *SUCCESS* -->output/WearCookPanWithLid.pkl
Attempting pssn_stl/MortSaltShak.stl
	pssn_stl/MortSaltShak.stl - *SUCCESS* -->output/MortSaltShak.pkl
Attempting pssn_stl/Spam12oz.stl
	pssn_stl/Spam12oz.stl - *SUCCESS* -->output/Spam12oz.pkl
Attempting pssn_stl/BrinMiniSoccBall.stl
	pssn_stl/BrinMiniSoccBall.stl - *SUCCESS* -->output/BrinMiniSoccBall.pkl
Attempting pssn_stl/StaiSteeSpat.stl
	pssn_stl/StaiSteeSpat.stl - *SUCCESS* -->output/StaiSteeSpat.pkl
Attempting pssn_stl/MortPeppShak.stl
	pssn_stl/MortPeppShak.stl - *SUCCESS* -->output/MortPeppShak.pkl
Attempting pssn_stl/2inMetaWash.stl
	pssn_stl/2inMetaWash.stl - *SUCCESS* -->output/2inMetaWash.pkl
Attempting pssn_stl/Stan13ozHamm.stl
	pssn_stl/Stan13ozHamm.stl - *SUCCESS* -->output/Stan13ozHamm.pkl
Attempting pssn_stl/SmalBlacSpriClam.stl
	pssn_stl/SmalBlacSpriClam.stl - *SUCCESS* -->output/SmalBlacSpriClam.pkl
Attempting pssn_stl/PlayGoRainStakCups1Yell.stl
	pssn_stl/PlayGoRainStakCups1Yell.stl - *SUCCESS* -->output/PlayGoRainStakCups1Yell.pkl
Attempting pssn_stl/ThicWoodBloc6in.stl
	pssn_stl/ThicWoodBloc6in.stl - *SUCCESS* -->output/ThicWoodBloc6in.pkl
Attempting pssn_stl/StanFlatScre.stl
	pssn_stl/StanFlatScre.stl - *SUCCESS* -->output/StanFlatScre.pkl
Attempting pssn_stl/WilsGolfBall.stl
	pssn_stl/WilsGolfBall.stl - *SUCCESS* -->output/WilsGolfBall.pkl
Attempting pssn_stl/ClorDisiWipe35.stl
	pssn_stl/ClorDisiWipe35.stl - *SUCCESS* -->output/ClorDisiWipe35.pkl
Attempting pssn_stl/FrenClasYellMust14oz.stl
	pssn_stl/FrenClasYellMust14oz.stl - *SUCCESS* -->output/FrenClasYellMust14oz.pkl
Attempting pssn_stl/PurpWoodBloc1inx.stl
	pssn_stl/PurpWoodBloc1inx.stl - *SUCCESS* -->output/PurpWoodBloc1inx.pkl
Attempting pssn_stl/RubbIceGuarPitcBlue.stl
	pssn_stl/RubbIceGuarPitcBlue.stl - *SUCCESS* -->output/RubbIceGuarPitcBlue.pkl
Attempting pssn_stl/MeliDougFarmFresFruiAppl.stl
	pssn_stl/MeliDougFarmFresFruiAppl.stl - *SUCCESS* -->output/MeliDougFarmFresFruiAppl.pkl
Attempting pssn_stl/YellPlasChai.stl
	pssn_stl/YellPlasChai.stl - *SUCCESS* -->output/YellPlasChai.pkl
Attempting pssn_stl/1AndAHalfInMetaWash.stl
	pssn_stl/1AndAHalfInMetaWash.stl - *SUCCESS* -->output/1AndAHalfInMetaWash.pkl
Attempting pssn_stl/JellStraGelaDess.stl
	pssn_stl/JellStraGelaDess.stl - *SUCCESS* -->output/JellStraGelaDess.pkl
Attempting pssn_stl/CampCondTomaSoup.stl
	pssn_stl/CampCondTomaSoup.stl - *SUCCESS* -->output/CampCondTomaSoup.pkl
Attempting pssn_stl/OranWoodBloc1inx.stl
	pssn_stl/OranWoodBloc1inx.stl - *SUCCESS* -->output/OranWoodBloc1inx.pkl
Attempting pssn_stl/MeliDougFarmFresFruiPlum.stl
	pssn_stl/MeliDougFarmFresFruiPlum.stl - *SUCCESS* -->output/MeliDougFarmFresFruiPlum.pkl
Attempting pssn_stl/MoutSecuSteeShac.stl
	pssn_stl/MoutSecuSteeShac.stl - *SUCCESS* -->output/MoutSecuSteeShac.pkl
Attempting pssn_stl/MeliDougFarmFresFruiPeac.stl
	pssn_stl/MeliDougFarmFresFruiPeac.stl - *SUCCESS* -->output/MeliDougFarmFresFruiPeac.pkl
Attempting pssn_stl/ExpoBlacDryErasMark.stl
	pssn_stl/ExpoBlacDryErasMark.stl - *SUCCESS* -->output/ExpoBlacDryErasMark.pkl
Attempting pssn_stl/BlocOfWood12in.stl
	pssn_stl/BlocOfWood12in.stl - *SUCCESS* -->output/BlocOfWood12in.pkl
Attempting pssn_stl/MeliDougFarmFresFruiPear.stl
	pssn_stl/MeliDougFarmFresFruiPear.stl - *SUCCESS* -->output/MeliDougFarmFresFruiPear.pkl
Attempting pssn_stl/Chee14oz.stl
	pssn_stl/Chee14oz.stl - *SUCCESS* -->output/Chee14oz.pkl
Attempting pssn_stl/PlayGoRainStakCupsBox.stl
	pssn_stl/PlayGoRainStakCupsBox.stl - *SUCCESS* -->output/PlayGoRainStakCupsBox.pkl
Attempting pssn_stl/RedMetaBowlWhitSpec.stl
	pssn_stl/RedMetaBowlWhitSpec.stl - *SUCCESS* -->output/RedMetaBowlWhitSpec.pkl
Attempting pssn_stl/RedWoodBloc1inx.stl
	pssn_stl/RedWoodBloc1inx.stl - *SUCCESS* -->output/RedWoodBloc1inx.pkl
Attempting pssn_stl/windex.stl
	pssn_stl/windex.stl - *SUCCESS* -->output/windex.pkl
Attempting pssn_stl/ChamSporOffiSoft.stl
	pssn_stl/ChamSporOffiSoft.stl - *SUCCESS* -->output/ChamSporOffiSoft.pkl
Attempting pssn_stl/MeliDougFarmFresFruiStra.stl
	pssn_stl/MeliDougFarmFresFruiStra.stl - *SUCCESS* -->output/MeliDougFarmFresFruiStra.pkl
Attempting pssn_stl/PrinOrig.stl
	pssn_stl/PrinOrig.stl - *SUCCESS* -->output/PrinOrig.pkl
Attempting pssn_stl/PlayGoRainStakCups7Yell.stl
	pssn_stl/PlayGoRainStakCups7Yell.stl - *SUCCESS* -->output/PlayGoRainStakCups7Yell.pkl
Attempting pssn_stl/Wils100TennBall.stl
	pssn_stl/Wils100TennBall.stl - *SUCCESS* -->output/Wils100TennBall.pkl
Attempting pssn_stl/Chee388g.stl
	pssn_stl/Chee388g.stl - *SUCCESS* -->output/Chee388g.pkl
Attempting pssn_stl/PlayGoRainStakCups3Red.stl
	pssn_stl/PlayGoRainStakCups3Red.stl - *SUCCESS* -->output/PlayGoRainStakCups3Red.pkl
Attempting pssn_stl/SharMark.stl
	pssn_stl/SharMark.stl - *SUCCESS* -->output/SharMark.pkl
Attempting pssn_stl/LargBlacSpriClam.stl
	pssn_stl/LargBlacSpriClam.stl - *SUCCESS* -->output/LargBlacSpriClam.pkl
Attempting pssn_stl/BlueWoodBloc1inx.stl
	pssn_stl/BlueWoodBloc1inx.stl - *SUCCESS* -->output/BlueWoodBloc1inx.pkl
Attempting pssn_stl/SponWithTextCove.stl
	pssn_stl/SponWithTextCove.stl - *SUCCESS* -->output/SponWithTextCove.pkl
Attempting pssn_stl/BlanHardPlasCard.stl
	pssn_stl/BlanHardPlasCard.stl - *SUCCESS* -->output/BlanHardPlasCard.pkl
Attempting pssn_stl/DarkRedFoamBlocWithThreHole.stl
	pssn_stl/DarkRedFoamBlocWithThreHole.stl - *SUCCESS* -->output/DarkRedFoamBlocWithThreHole.pkl
Attempting pssn_stl/PennRaquBall.stl
	pssn_stl/PennRaquBall.stl - *SUCCESS* -->output/PennRaquBall.pkl
Attempting pssn_stl/PlayGoRainStakCups5Gree.stl
	pssn_stl/PlayGoRainStakCups5Gree.stl - *SUCCESS* -->output/PlayGoRainStakCups5Gree.pkl
Attempting pssn_stl/PlayGoRainStakCups10Blue.stl
	pssn_stl/PlayGoRainStakCups10Blue.stl - *SUCCESS* -->output/PlayGoRainStakCups10Blue.pkl
Attempting pssn_stl/RedMetaPlatWhitSpec.stl
	pssn_stl/RedMetaPlatWhitSpec.stl - *SUCCESS* -->output/RedMetaPlatWhitSpec.pkl
At